{
  "master_host": "pe-std.puppet.vm",
  "master_replica_host": "pe-std-replica.puppet.vm",
  "console_password": "puppetlabs",
  "dns_alt_names": [ "puppet", "pe-std.puppet.vm" ],
  "version": "2019.1.1",
  "stagingdir": "/app"
}